ISSS624 - In-class Exercise 2
…
The following code chunk uses the write_rds() method of the readr package to save the extracted data into an output file in rds data format:

wp_nga <- write_rds(nigeria_wp_sf, "data/rds/wp_nga.rds")

wp_nga

Simple feature collection with 95008 features and 68 fields
Geometry type: POINT
Dimension:     XY
Bounding box:  xmin: 32536.82 ymin: 33461.24 xmax: 1292096 ymax: 1091052
Projected CRS: Minna / Nigeria West Belt
# A tibble: 95,008 × 69
   row_id `#source`      #repo…¹ #stat…² #wate…³ #wate…⁴ #wate…⁵ #wate…⁶ #faci…⁷
 *  <dbl> <chr>          <chr>   <chr>   <chr>   <chr>   <chr>   <chr>   <chr>  
 1 429068 GRID3          08/29/… Unknown <NA>    <NA>    Tapsta… Tapsta… Improv…
 2 222071 Federal Minis… 08/16/… Yes     Boreho… Well    Mechan… Mechan… Improv…
 3 160612 WaterAid       12/04/… Yes     Boreho… Well    Hand P… Hand P… Improv…
 4 160669 WaterAid       12/04/… Yes     Boreho… Well    <NA>    <NA>    Improv…
 5 160642 WaterAid       12/04/… Yes     Boreho… Well    Hand P… Hand P… Improv…
 6 160628 WaterAid       12/04/… Yes     Boreho… Well    Hand P… Hand P… Improv…
 7 160632 WaterAid       12/04/… Yes     Boreho… Well    Hand P… Hand P… Improv…
 8 642747 Living Water … 10/03/… Yes     Boreho… Well    Mechan… Mechan… Improv…
 9 642456 Living Water … 10/03/… Yes     Boreho… Well    Hand P… Hand P… Improv…
10 641347 Living Water … 03/28/… Yes     Boreho… Well    Hand P… Hand P… Improv…
# … with 94,998 more rows, 60 more variables: `#clean_country_name` <chr>,
#   `#clean_adm1` <chr>, `#clean_adm2` <chr>, `#clean_adm3` <chr>,
#   `#clean_adm4` <chr>, `#install_year` <dbl>, `#installer` <chr>,
#   `#rehab_year` <lgl>, `#rehabilitator` <lgl>, `#management_clean` <chr>,
#   `#status_clean` <chr>, `#pay` <chr>, `#fecal_coliform_presence` <chr>,
#   `#fecal_coliform_value` <dbl>, `#subjective_quality` <chr>,
#   `#activity_id` <chr>, `#scheme_id` <chr>, `#wpdx_id` <chr>, …
…
