ISSS624 - Take-home Exercise 1
…
nigeria_data

# A tibble: 749 × 4
# Groups:   #adm2 [749]
   `#adm2`        Functional `Non-functional` f2nfrate
   <chr>               <int>            <int>    <dbl>
 1 Aba South              33               16    2.06 
 2 Abaji                  33               36    0.917
 3 Abak                   22               25    0.88 
 4 Abakaliki              71               34    2.09 
 5 Abeokuta North         11                8    1.38 
 6 Abeokuta South         75               39    1.92 
 7 Abi                    79               60    1.32 
 8 Abia North              6               28    0.214
 9 Aboh-Mbaise            18               26    0.692
10 Abua/Odual             25               13    1.92 
# … with 739 more rows
…
